S.N,Name,Gender,Address,Marks
1,Nischal Basnet,Male,Itahari,90
2,Reyansh Kaustuvh Raj Shrestha,Male,Dharan,85
3,Sandeep Adhikari,Male,Pokhara,56
4,Sachit Raj Acharya,Male,Rukum,43
5,Santosh Bista,Male,Nepalgunj,55
6,Umesh Bhatta,Male,Dadeldhura,32
7,Anil kumar Chaudhary,Male,Bharatpur,67
8,Kiran Thapa,Male,Dhulikhel,76
14,Saroj Shrestha,Male,Manakamana,88
21,Rahul Baraily,Male,Kathmandu,86
22,Diwas Karki,Male,Bhaktapur,39
