S.N,Name,Gender,Address,Marks
9,Muna Shrestha,Female,Itahari,88
10,Sushma Adhikari,Female,Dang,49
11,Poonam Thapa,Female,Birendranagar,50
12,Sapana Chaudhary,Female,Lahan,65
13,Sandhya Thakuri Shahi,Female,Malangwa,22
15,Sabita Rimal,Female,Dharan,80
16,Kalpana Magar,Female,Biratnagar,65
17,Prapti Rai,Female,illam,62
18,Benisha Basnet,Female,Itahari,56
19,Aliza Bastola,Female,Diktel,76
20,Merica Baskota,Female,Butwal,93
